# Blender v2.73 (sub 0) OBJ File: ''
# www.blender.org
o Cone
v 0.000000 0.326683 -0.326684
v 0.063733 0.320406 -0.326684
v 0.125016 0.301816 -0.326684
v 0.181496 0.271627 -0.326684
v 0.231000 0.231000 -0.326684
v 0.271627 0.181496 -0.326684
v 0.301816 0.125016 -0.326684
v 0.320406 0.063733 -0.326684
v 0.326684 0.000000 -0.326684
v 0.000000 0.000000 0.326684
v 0.320406 -0.063733 -0.326684
v 0.301816 -0.125016 -0.326684
v 0.271627 -0.181496 -0.326684
v 0.231000 -0.231000 -0.326683
v 0.181496 -0.271627 -0.326683
v 0.125016 -0.301816 -0.326683
v 0.063733 -0.320406 -0.326683
v -0.000000 -0.326684 -0.326683
v -0.063733 -0.320406 -0.326683
v -0.125017 -0.301816 -0.326683
v -0.181496 -0.271627 -0.326683
v -0.231000 -0.231000 -0.326683
v -0.271628 -0.181495 -0.326684
v -0.301816 -0.125016 -0.326684
v -0.320406 -0.063733 -0.326684
v -0.326684 0.000000 -0.326684
v -0.320406 0.063733 -0.326684
v -0.301816 0.125017 -0.326684
v -0.271627 0.181496 -0.326684
v -0.231000 0.231000 -0.326684
v -0.181495 0.271628 -0.326684
v -0.125016 0.301816 -0.326684
v -0.063732 0.320406 -0.326684
v 0.000000 0.326683 -0.326684
v 0.063733 0.320406 -0.326684
v 0.125016 0.301816 -0.326684
v 0.181496 0.271627 -0.326684
v 0.231000 0.231000 -0.326684
v 0.271627 0.181496 -0.326684
v 0.301816 0.125016 -0.326684
v 0.320406 0.063733 -0.326684
v 0.326684 0.000000 -0.326684
v 0.320406 -0.063733 -0.326684
v 0.301816 -0.125016 -0.326684
v 0.271627 -0.181496 -0.326684
v 0.231000 -0.231000 -0.326683
v 0.181496 -0.271627 -0.326683
v 0.125016 -0.301816 -0.326683
v 0.063733 -0.320406 -0.326683
v -0.000000 -0.326684 -0.326683
v -0.063733 -0.320406 -0.326683
v -0.125017 -0.301816 -0.326683
v -0.181496 -0.271627 -0.326683
v -0.231000 -0.231000 -0.326683
v -0.271628 -0.181495 -0.326684
v -0.301816 -0.125016 -0.326684
v -0.320406 -0.063733 -0.326684
v -0.326684 0.000000 -0.326684
v -0.320406 0.063733 -0.326684
v -0.301816 0.125017 -0.326684
v -0.271627 0.181496 -0.326684
v -0.231000 0.231000 -0.326684
v -0.181495 0.271628 -0.326684
v -0.125016 0.301816 -0.326684
v -0.063732 0.320406 -0.326684
s off
f 32 10 33
f 1 10 2
f 31 10 32
f 30 10 31
f 29 10 30
f 28 10 29
f 27 10 28
f 26 10 27
f 25 10 26
f 24 10 25
f 23 10 24
f 22 10 23
f 21 10 22
f 20 10 21
f 19 10 20
f 18 10 19
f 17 10 18
f 16 10 17
f 15 10 16
f 14 10 15
f 13 10 14
f 12 10 13
f 11 10 12
f 9 10 11
f 8 10 9
f 7 10 8
f 6 10 7
f 5 10 6
f 4 10 5
f 3 10 4
f 33 10 1
f 2 10 3
f 58 38 50
f 62 65 34
f 62 63 64
f 60 61 62
f 62 59 60
f 51 57 58
f 51 55 56
f 55 53 54
f 53 51 52
f 46 49 50
f 49 47 48
f 44 45 46
f 42 43 44
f 40 41 42
f 38 39 40
f 36 37 38
f 34 35 36
f 62 64 65
f 34 59 62
f 51 56 57
f 55 51 53
f 46 47 49
f 50 44 46
f 38 40 42
f 34 36 38
f 58 59 34
f 50 51 58
f 42 44 50
f 50 38 42
f 38 58 34
